{
  "v": "5.5.9",
  "fr": 30,
  "ip": 0,
  "op": 180,
  "w": 300,
  "h": 300,
  "nm": "animation_name",
  "layers": [
    {
      "d": 1,
      "n": "Shape Layer 1",
      "ty": 4,
      "sr": 1,
      "ks": {
        "o": {
          "a": 0,
          "k": 100
        },
        "r": {
          "a": 0,
          "k": 0
        },
        "p": {
          "a": 0,
          "k": [150, 150, 0]
        },
        "a": {
          "a": 0,
          "k": [0, 0, 0]
        },
        "s": {
          "a": 0,
          "k": [100, 100, 100]
        }
      },
      "ao": 0,
      "shapes": []
    }
  ]
}
